ID	Name_EN	Name_CN
0	(none)	（无）
1	Team 	队伍
2	Aizen	爱染
3	Akatsuki	晓
4	Akebono	曙
5	Azai	浅井
6	Arai	阿修罗
7	Arufumi	一书
8	Ikazuchi	雷
9	Ikaruga	斑鸠
10	Izayoi	十六夜
11	Izumo	出云
12	Ichiro	一路
13	Ikaku	一角
14	Ikki	一辉
15	Issen	一闪
16	Inazuma	稻妻
17	Ushio	海潮
18	Oryuu	应龙
19	Owashi	大鹫
20	Okina	冲名
21	Oboro	胧
22	Orochi	大蛇
23	Kaiden	皆传
24	Kaibyaku	开辟
25	Karkan	果敢
26	Kagemitsu	景光
27	Kagero	阳炎
28	Kazan	火山
29	Katsumasa	胜正
30	Kanesada	兼定
31	Kanehira	兼平
32	Kanemitsu	兼光
33	Kei	气锐
34	Kijin	鬼神
35	Kibitsu	吉备津
36	Gokuto	玉兔
37	Kirim	麒麟
38	Gingar	银河
39	Kur	空
40	Kuzan	空山
41	Kusanagi	草柳
42	Kurochi	黑雷
43	Krogane	黑金
44	Genno	玄翁
45	Kouki	光辉
46	Kouru	黄龙
47	Kogarashi	木枯
48	Kokras	小鸦
49	Gogyo	五行
50	Kojiro	小次郎
51	Kosor	古庄
52	Kotetsu	虎彻
53	Kongir	金刚
54	Konjiki	金色
55	Sakon	左近
56	Sangar	山河
57	Shun	紫云
58	Shikiso	色即
59	Shishi	狮子
60	Shichisei	七星
61	Shiko	漆黑
62	Shippun	疾风
63	Shiden	紫电
64	Shura	修罗
65	Shungen	瞬言
66	Shin Mei	神明
67	Shinra	森罗
68	Jin Rai	迅雷
69	Jinryuu	神龙
70	Suro	周防
71	Sulgar	骏河
72	Seigai	青海
73	Sysor	星霜
74	Seiten	齐天
75	Seimei	晴明
76	Zeku	是空
77	Zeno	禅
78	Sordai	壮大
79	Soten	苍天
80	Sohmei	沧溟
81	Shouryu	苍龙
82	Sohaya	骚速
83	Taiga	大河
84	Daiko	大黑
85	Tyzan	泰然
86	Taisei	大圣
87	Tyhei	太平
88	Tadar	扇
89	Tsurugi	剑
90	Tenka	天下
91	Tenku	天空
92	Denko	电光
93	Toshi	斗士
94	Tokka	十束
95	Hagan	钢
96	Hakusui	白水
97	Hakuto	白兔
98	Hayate	飒
99	Hayabusa	隼
100	Hanni	般若
101	Hei	飞影
102	Hiken	秘剑
103	Bizen	备前
104	Hynk	秘色
105	Hideh	秀久
106	Hiden	飞电
107	Bakuya	白夜
108	Huga	日向
109	Hiryu	飞龙
110	Fuwei	风咏
111	Fugetsu	风月
112	Hukut	不屈
113	Fudor	不动
114	Hekireki	霹雳
115	Bengara	弁柄
116	Horoh	凤凰
117	Hokuto	北斗
118	Shigan	白金
119	Mikazuchi	御雷
120	Mizuchi	蛟
121	Mitsukage	御月影
122	Mior	明王
123	Mu	无影
124	Mugen	无限
125	Musashi	武藏
126	Mujo	无常
127	Musou	无双
128	Muchika	宗亲
129	Murakumo	丛云
130	Murasame	村雨
131	Meikyo	明镜
132	Mejiro	目白
133	Yago	柳生
134	Yakumo	八云
135	Yasha	夜叉
136	Yata	八咫
137	Yanagi	柳
138	Yamato	大和
139	Yuki	勇气
140	Yuzen	悠然
141	Yuso	勇壮
142	Yumo	勇猛
143	Yoshikiri	苇切
144	Rykiri	雷切
145	Ranmaru	兰丸
146	Rikuzen	陆前
147	Ryusei	流星
148	Ryo	亮
149	Rogen	燎原
150	Reiki	零纪
151	Roho	莱菔
152	Ai	蓝
153	Aui	葵
154	Auba	青叶
155	Akana	茜
156	Yoiyami	宵暗
157	Asagi	浅葱
158	Asai	朝日
159	Aska	飞鸟
160	Azuki	小豆
161	Atori	花雉
162	Amanei	天音
163	Amayori	甘依
164	Ayame	菖蒲
165	Anzu	杏子
166	Koyuki	粉雪
167	Kyoka	镜花
168	Isuzu	五十铃
169	Ichiku	无花果
170	Iroha	伊吕波
171	Uzura	鹑
172	Uzuki	卯月
173	Umi	羽美
174	Ema	绘麻
175	Orka	樱花
176	Kaeda	枫
177	Sarasa	更纱
178	Kanami	鹿波
179	Kanon	花音
180	Karin	花梨
181	Karei	花丽
182	Karyn	花莲
183	Kanna	神无
184	Kiko	桔梗
185	Kisaragi	如月
186	Kiri	桐
187	Kinsei	金星
188	Quina	水雉
189	Kuko	枸杞
190	Kurumi	胡桃
191	Kurenai	红
192	Kogoku	红玉
193	Kokutan	黑檀
194	Kokuyo	黑曜
195	Kokoro	心
196	Konoha	木叶
197	Kohana	木花
198	Kohaku	琥珀
199	Sakuya	朔夜
200	Sazami	涟
201	Satsuki	早月
202	Sango	珊瑚
203	Shiori	汐里
204	Shigura	时雨
205	Shisui	止水
206	Shizuku	滴
207	Shinome	东云
208	Shinobu	忍
209	Shimoki	霜月
210	Shussu	朱子
211	Shuraya	白露
212	Shiranui	不知火
213	Shirayuki	白雪
214	Shirayuri	白百合
215	Shirome	白诘
216	Suiren	睡莲
217	Suzu	铃
218	Suzukaze	凉风
219	Suzuna	铃菜
220	Suzuran	铃兰
221	Sumira	堇
222	Tsumugi	津麦
223	Sekirei	石怜
224	Setsuka	雪歌
225	Sora	穹
226	Tamayori	玉依
227	Chigusa	千草
228	Chidori	千鸟
229	Tsugumi	鸫
230	Tsukumi	月读
231	Zutsuji	杜鹃
232	Tsubaki	椿
233	Tsumi	罪月
234	Tsura	冰柱
235	Tsuruba	橡
236	Tomae	巴
237	Torwa	常
238	Nazuna	荠
239	Natsuki	夏树
240	Nadeshiko	抚子
241	Natori	七凤
242	Ne Ne	宁宁
243	Nenoh	子日
244	Neyuki	根雪
245	Nosuri	飞鹞
246	Hasu	莲
247	Hazuki	叶月
248	Hatsuharu	初春
249	Hatsuyuki	初雪
250	Haruka	遥
251	Harusa	春雨
252	Haruna	阳菜
253	Higana	彼岸
254	Hisui	翡翠
255	Hinagi	雏菊
256	Hinagetsu	雏罂粟
257	Hinata	雏田
258	Hibari	云雀
259	Hibiki	响
260	Himawari	向日葵
261	Faera	风花
262	Fubuki	吹雪
263	Fuyoshi	芙蓉
264	Yuzu	柚子
265	Botania	牡丹
266	Honoka	穗香
267	Madoka	圆
268	Mikagami	御镜
269	Mikazuki	三日月
270	Mika	蜜柑
271	Mikoto	命
272	Misaki	美崎
273	Midori	碧
274	Minazuki	水无月
275	Minami	美波
276	Minori	美律
277	Miyuki	美雪
278	Mirei	美铃
279	Mutsuki	睦月
280	Maegi	萌黄
281	Mochi	望月
282	Momiji	红叶
283	Moyoi	藻良
284	Yayoi	弥生
285	Yuka	夕夏
286	Yutsuji	夕星
287	Yuna	夕奈
288	Yukina	雪菜
289	Yukine	雪音
290	Yuzuki	柚希
291	Yura	由良
292	Yuri	百合
293	Yomogi	艾叶
294	Rania	兰
295	Rinnia	林檎
296	Lindora	龙胆
297	Lin	轮舞
298	Ruri	琉璃
299	Reika	丽华
300	Rengenne	莲华
301	Wakaba	若叶
302	Utsuwaka	牛若
303	Kai	魁
304	Kukir	穷奇
305	Kuro	玄
306	Goemon	五右卫门
307	Koske	小介
308	Kotar	小太郎
309	Goro	五郎
310	Kontro	混沌
311	Sasuke	佐助
312	Shimaru	狮子丸
313	Shiro	白
314	Tamar	多摩
315	Tamon	多闻
316	Tibbi	豆丁
317	Chamaru	茶茶丸
318	Tokoto	陆吾
319	Totetsu	饕餮
320	Baku	缚
321	Hutar	风太
322	Pochi	波奇
323	Bonten	梵天丸
324	Ryta	雷太
325	Riku	陆
